<?xml version="1.0" encoding="iso-8859-1"?>
<!-- Generator: Adobe Illustrator 17.1.0, SVG Export Plug-In . SVG Version: 6.00 Build 0)  -->
<!DOCTYPE svg PUBLIC "-//W3C//DTD SVG 1.1//EN" "http://www.w3.org/Graphics/SVG/1.1/DTD/svg11.dtd">
<svg version="1.1" id="Layer_1" xmlns="http://www.w3.org/2000/svg" xmlns:xlink="http://www.w3.org/1999/xlink" x="0px" y="0px"
	 viewBox="0 0 64 64" style="enable-background:new 0 0 64 64;" xml:space="preserve">
<polygon points="25.298,38 19,38 19,46 19,59 22.631,59 24.282,46 39.697,46 40.864,59 45,59 45,46 45,38 38.979,38 "/>
<path d="M43,36V9h-2.526l-0.095,2H23.576l-0.137-2H21v27h4.285l-0.615-9h14.945l-0.43,9H43z M24.533,25l-0.137-2h15.409l-0.095,2
	H24.533z"/>
</svg>
