<?xml version="1.0" encoding="utf-8"?>
<!-- Generator: Adobe Illustrator 16.0.4, SVG Export Plug-In . SVG Version: 6.00 Build 0)  -->
<!DOCTYPE svg PUBLIC "-//W3C//DTD SVG 1.1//EN" "http://www.w3.org/Graphics/SVG/1.1/DTD/svg11.dtd">
<svg version="1.1" id="Layer_1" xmlns="http://www.w3.org/2000/svg" xmlns:xlink="http://www.w3.org/1999/xlink" x="0px" y="0px"
	 width="105px" height="91px" viewBox="0 0 105 91" enable-background="new 0 0 105 91" xml:space="preserve">
<path d="M0,24.5v42h105v-42H0z M35,59.5H8.75v-28H35V59.5z M66.5,59.5H40.25v-28H66.5V59.5z M98,59.5H71.75v-28H98V59.5z M14,57.75
	h-3.5v-21H14V57.75z M19.25,57.75h-3.5v-21h3.5V57.75z M29.047,57.523l-8.771-19.082l3.181-1.463l8.771,19.082L29.047,57.523z
	 M41.708,47.25h22.604c0,6.242-5.06,11.302-11.301,11.302C46.77,58.552,41.708,53.492,41.708,47.25z"/>
</svg>
