<?xml version="1.0" encoding="iso-8859-1"?>
<!-- Generator: Adobe Illustrator 17.1.0, SVG Export Plug-In . SVG Version: 6.00 Build 0)  -->
<!DOCTYPE svg PUBLIC "-//W3C//DTD SVG 1.1//EN" "http://www.w3.org/Graphics/SVG/1.1/DTD/svg11.dtd">
<svg version="1.1" id="Layer_1" xmlns="http://www.w3.org/2000/svg" xmlns:xlink="http://www.w3.org/1999/xlink" x="0px" y="0px"
	 viewBox="0 0 64 64" style="enable-background:new 0 0 64 64;" xml:space="preserve">
<path d="M17,53h11v-8h9v8h10V28H17V53z M43,31v7h-3v-7H43z M35,31h3v7h-3V31z M29,31v7h-3v-7H29z M21,31h3v7h-3V31z"/>
<polygon points="45,18.778 45,11 39,11 39,14.119 "/>
<polygon points="39,15.384 32.667,10.466 11.375,27 17,27 47,27 53.959,27 45,20.043 "/>
</svg>
